[
    {
        "id": 0,
        "name": "501 Original Fit",
        "brand": "Levi's",
        "rise": 11.75,
        "thigh": 12.25,
        "knee": 9,
        "ankle": 8.25,
        "image": "Levis501.jpg"
    },
    {
        "id": 1,
        "name": "502 Taper Fit",
        "brand": "Levi's",
        "rise": 11.75,
        "thigh": 12.25,
        "knee": 8,
        "ankle": 7.25,
        "image": "Levis502.jpg"
    },
    {
        "id": 2,
        "name": "505 Regular Fit",
        "brand": "Levi's",
        "rise": 11.75,
        "thigh": 12.25,
        "knee": 9,
        "ankle": 8.25,
        "image": "Levis505.jpg"
    },
    {
        "id": 3,
        "name": "510 Skinny Fit",
        "brand": "Levi's",
        "rise": 9,
        "thigh": 10.5,
        "knee": 7.5,
        "ankle": 6.5,
        "image": "Levis510.jpg"
    },
    {
        "id": 4,
        "name": "511 Slim Fit",
        "brand": "Levi's",
        "rise": 11,
        "thigh": 11,
        "knee": 8,
        "ankle": 7.25,
        "image": "Levis511.jpg"
    },
    {
        "id": 5,
        "name": "512 Taper Slim Fit",
        "brand": "Levi's",
        "rise": 11,
        "thigh": 11,
        "knee": 8,
        "ankle": 6.375,
        "image": "Levis512.jpg"
    },
    {
        "id": 6,
        "name": "514 Straight Fit",
        "brand": "Levi's",
        "rise": 11,
        "thigh": 11.5,
        "knee": 9,
        "ankle": 8.25,
        "image": "Levis514.jpg"
    }
]
